Taha Karakaya’s Analytics Lab - Trafik Kaza Analizi
…
accident_na_summary <- na_summary(accidents)
vehicle_na_summary  <- na_summary(vehicles)

accident_na_summary

# A tibble: 34 × 4
   column                                      na_count total_rows na_percent
   <chr>                                          <int>      <int>      <dbl>
 1 carriageway_hazards                          1028863    1048575      98.1 
 2 special_conditions_at_site                   1021551    1048575      97.4 
 3 x2nd_road_class                               439824    1048575      41.9 
 4 junction_control                              353871    1048575      33.8 
 5 lsoa_of_accident_location                      71890    1048575       6.86
 6 weather_conditions                             47878    1048575       4.57
 7 x2nd_road_number                               10803    1048575       1.03
 8 road_type                                       7266    1048575       0.69
 9 road_surface_conditions                         1189    1048575       0.11
10 did_police_officer_attend_scene_of_accident      269    1048575       0.03
# ℹ 24 more rows

vehicle_na_summary

# A tibble: 24 × 4
   column                     na_count total_rows na_percent
   <chr>                         <int>      <int>      <dbl>
 1 hit_object_in_carriageway   2089126    2177205      96.0 
 2 hit_object_off_carriageway  1990274    2177205      91.4 
 3 skidding_and_overturning    1899223    2177205      87.2 
 4 journey_purpose_of_driver   1001151    2177205      46.0 
 5 driver_imd_decile            734812    2177205      33.8 
 6 age_of_vehicle               358149    2177205      16.4 
 7 driver_home_area_type        334344    2177205      15.4 
 8 engine_capacity_cc           265861    2177205      12.2 
 9 propulsion_code              245843    2177205      11.3 
10 model                        214486    2177205       9.85
# ℹ 14 more rows
…
combined <- combined %>%
  mutate(across(
    everything(),
    ~ ifelse(. %in% na_like, NA, .)
  ))

#motor gücü 50cc'den az olanları çıkartıyoruz.
combined <- combined %>%
  mutate(engine_capacity_cc = as.numeric(engine_capacity_cc)) %>% 
  filter(engine_capacity_cc >= 50 | is.na(engine_capacity_cc))

combined_na_summary <- na_summary(combined)
combined_na_summary

# A tibble: 21 × 4
   column                  na_count total_rows na_percent
   <chr>                      <int>      <int>      <dbl>
 1 driver_imd_decile         115404     523806      22.0 
 2 age_of_vehicle             69068     523806      13.2 
 3 engine_capacity_cc         45277     523806       8.64
 4 age_band_of_driver         41244     523806       7.87
 5 weather_conditions         22280     523806       4.25
 6 vehicle_type                3796     523806       0.72
 7 road_surface_conditions      718     523806       0.14
 8 vehicle_manoeuvre            154     523806       0.03
 9 urban_or_rural_area           37     523806       0.01
10 accident_index                 0     523806       0   
# ℹ 11 more rows
…
    summarise(across(
      everything(),
      ~ sum(is.na(.) |
              . %in% c("Data missing or out of range", "Unallocated", "None", "NA", "Not known", "Other vehicle", "Unknown","Other"))
    )) %>%
    pivot_longer(everything(), names_to = "column", values_to = "na_count") %>%
    mutate(
      total_rows = nrow(df),
      na_percent = round((na_count / total_rows) * 100, 2)
    ) %>%
    arrange(desc(na_percent))
}
na_summary(combined)

# A tibble: 21 × 4
   column             na_count total_rows na_percent
   <chr>                 <int>      <int>      <dbl>
 1 accident_index            0     497673          0
 2 engine_capacity_cc        0     497673          0
 3 vehicle_manoeuvre         0     497673          0
 4 vehicle_type              0     497673          0
 5 make                      0     497673          0
 6 driver_imd_decile         0     497673          0
 7 age_band_of_driver        0     497673          0
 8 age_of_vehicle            0     497673          0
 9 time                      0     497673          0
10 accident_severity         0     497673          0
# ℹ 11 more rows
…
